timestamp,memory,cpu,load
15:41:00,46.58,17.40,0.15
15:41:02,47.56,22.80,0.22
15:41:05,48.33,37.50,0.22
15:41:07,48.80,36.00,0.28
15:41:09,49.00,19.10,0.28
15:41:12,49.37,23.90,0.28
15:41:14,49.14,30.00,0.26
15:41:16,49.62,21.80,0.26
15:41:18,49.75,18.20,0.24
15:41:21,49.98,34.80,0.24
15:41:23,50.22,33.40,0.30
15:41:25,50.04,30.50,0.30
15:41:27,50.27,23.90,0.27
15:41:30,50.59,23.90,0.27
15:41:32,50.88,22.80,0.25
15:41:34,51.17,18.20,0.25
15:41:37,50.30,21.80,0.25
15:41:39,50.32,22.80,0.31
15:41:41,50.41,23.90,0.31
15:41:43,50.62,25.00,0.29
15:41:46,50.82,23.90,0.29
15:41:48,51.09,50.00,0.34
15:41:50,51.40,18.20,0.34
15:41:53,51.62,41.00,0.40
15:41:55,51.54,13.70,0.40
15:41:57,51.65,27.30,1.01
15:41:59,51.90,30.50,1.01
15:42:02,51.99,39.20,1.01
15:42:04,52.16,28.60,0.93
15:42:06,52.32,14.30,0.93
15:42:09,52.43,14.30,0.85
15:42:11,52.60,21.80,0.85
15:42:13,50.53,22.80,0.94
15:42:15,50.41,22.80,0.94
15:42:18,50.60,21.80,0.87
15:42:20,50.67,37.50,0.87
15:42:22,50.76,27.30,0.80
15:42:25,51.11,9.60,0.80
15:42:27,51.11,27.30,0.73
15:42:29,51.20,23.90,0.73
15:42:32,51.30,21.80,0.73
15:42:34,51.50,23.90,0.67
15:42:36,51.72,29.20,0.67
15:42:38,51.75,22.80,0.86
15:42:41,51.91,23.90,0.86
15:42:43,51.93,23.90,0.79
15:42:45,52.05,19.10,0.79
15:42:47,52.24,21.80,0.73
15:42:50,52.32,19.10,0.73
15:42:52,52.68,36.40,0.83
15:42:54,52.71,23.90,0.83
15:42:57,52.98,21.80,0.83
15:42:59,53.14,27.30,0.76
15:43:01,50.47,30.50,0.76
15:43:03,50.45,23.90,0.70
15:43:06,50.61,30.50,0.70
15:43:08,50.75,28.60,0.73
15:43:10,50.96,25.00,0.73
15:43:13,51.39,18.20,0.67
15:43:15,51.35,18.20,0.67
15:43:17,51.48,28.60,0.61
15:43:19,51.48,27.30,0.61
15:43:22,51.68,19.10,0.61
15:43:24,51.81,23.90,0.56
15:43:26,52.14,28.60,0.56
15:43:29,52.18,14.30,0.52
15:43:31,52.24,13.70,0.52
15:43:33,52.46,21.10,0.48
15:43:35,52.68,22.80,0.48
15:43:38,52.65,23.90,0.44
15:43:40,52.66,21.80,0.44
15:43:42,52.98,14.30,0.48
15:43:45,53.01,19.10,0.48
15:43:47,53.21,31.90,0.48
15:43:49,53.20,23.90,0.53
15:43:51,53.30,29.20,0.53
15:43:54,53.58,26.10,0.48
15:43:56,53.65,28.60,0.48
15:43:58,53.73,30.50,0.52
15:44:01,54.03,17.40,0.52
15:44:03,54.05,19.10,1.20
15:44:05,54.19,28.60,1.20
15:44:07,54.33,36.40,1.11
15:44:10,50.44,40.00,1.11
15:44:12,50.80,34.80,1.02
15:44:14,50.78,28.60,1.02
15:44:17,51.05,17.40,1.02
15:44:19,51.14,27.00,0.94
15:44:21,51.19,47.90,0.94
15:44:23,51.38,29.20,0.94
15:44:26,51.42,31.90,0.94
15:44:28,51.56,28.60,0.95
15:44:30,51.67,28.60,0.95
15:44:33,51.80,50.00,0.87
15:44:35,50.52,30.50,0.87
15:44:37,50.78,18.20,0.80
15:44:39,50.92,19.10,0.80
15:44:42,50.95,19.10,0.80
15:44:44,51.09,23.90,0.74
15:44:46,51.21,27.30,0.74
15:44:48,51.39,17.40,0.68
15:44:51,51.50,26.10,0.68
15:44:53,51.56,28.60,0.70
15:44:55,51.71,22.80,0.70
15:44:58,51.81,26.10,0.65
15:45:00,52.00,23.90,0.65
15:45:02,52.21,34.80,0.75
15:45:04,52.30,31.90,0.75
15:45:07,52.41,20.90,0.75
15:45:09,52.56,43.50,0.69
15:45:11,52.83,26.10,0.69
15:45:14,52.85,27.30,0.64
15:45:16,52.82,22.80,0.64
15:45:18,53.04,17.40,0.59
15:45:20,53.49,60.00,0.59
15:45:23,50.75,13.70,0.54
15:45:25,51.09,22.80,0.54
15:45:27,51.02,15.00,0.66
15:45:30,51.19,15.00,0.66
15:45:32,51.34,15.80,0.66
15:45:34,51.56,18.20,0.60
15:45:36,51.87,18.20,0.60
15:45:39,51.89,17.40,0.56
15:45:41,51.94,21.80,0.56
15:45:43,52.00,19.10,0.51
15:45:46,52.21,22.80,0.51
15:45:48,52.25,30.50,0.47
15:45:50,52.49,30.00,0.47
15:45:52,52.56,14.30,0.51
15:45:55,52.61,38.10,0.51
15:45:57,52.87,19.10,0.47
15:45:59,53.02,23.90,0.47
15:46:01,53.10,34.80,0.47
15:46:04,53.22,20.00,0.43
15:46:06,53.19,21.80,0.43
15:46:08,53.37,23.90,0.80
15:46:11,53.64,22.80,0.80
15:46:13,53.85,17.40,0.73
15:46:15,53.90,22.80,0.73
15:46:17,54.08,25.00,0.68
15:46:20,54.12,20.00,0.68
15:46:22,54.32,34.80,0.62
15:46:24,54.39,18.20,0.62
15:46:27,54.61,34.80,0.62
15:46:29,54.82,21.80,0.57
15:46:31,50.61,13.70,0.57
15:46:33,50.69,20.00,0.53
15:46:36,51.13,29.20,0.53
15:46:38,51.17,41.70,0.64
15:46:40,51.23,19.10,0.64
15:46:43,51.23,19.10,0.59
15:46:45,51.48,25.00,0.59
15:46:47,51.60,22.80,0.70
15:46:49,51.64,28.60,0.70
15:46:52,51.77,19.10,0.70
15:46:54,51.97,26.10,0.65
15:46:56,52.07,26.10,0.65
15:46:59,52.24,41.00,0.68
15:47:01,52.40,30.50,0.68
15:47:03,52.55,18.20,0.62
15:47:05,52.69,23.90,0.62
15:47:08,52.77,41.70,0.57
15:47:10,52.89,22.80,0.57
15:47:12,53.27,22.80,0.53
15:47:15,53.36,22.80,0.53
15:47:17,53.40,29.20,0.53
15:47:19,53.52,28.60,0.48
15:47:21,53.74,21.80,0.48
15:47:24,53.87,23.90,0.44
15:47:26,54.04,23.90,0.44
15:47:28,54.06,23.90,0.41
15:47:30,54.19,23.90,0.41
15:47:33,54.49,15.00,0.46
15:47:35,54.75,33.40,0.46
15:47:37,54.81,13.70,0.58
15:47:40,54.83,23.90,0.58
15:47:42,54.95,22.80,0.58
15:47:44,55.01,26.10,0.53
15:47:46,55.14,20.00,0.53
15:47:49,55.37,33.40,0.49
15:47:51,55.57,18.20,0.49
15:47:53,55.68,23.90,0.45
15:47:56,55.79,80.80,0.45
15:47:58,55.87,22.80,0.41
15:48:00,56.00,22.80,0.41
15:48:03,56.07,50.00,0.38
15:48:05,56.19,26.10,0.38
15:48:07,56.49,34.80,0.35
15:48:09,56.69,27.30,0.35
15:48:12,51.04,27.30,0.35
15:48:14,50.99,31.90,0.40
15:48:16,51.05,28.60,0.40
15:48:19,51.29,20.90,0.45
15:48:21,51.40,19.10,0.45
15:48:23,51.59,34.80,0.41
15:48:25,51.64,14.30,0.41
15:48:28,51.77,37.50,0.38
15:48:30,51.79,21.80,0.38
15:48:32,51.98,20.00,0.35
15:48:34,52.08,20.00,0.35
15:48:37,52.55,18.20,0.35
15:48:39,52.56,25.00,0.40
15:48:41,52.64,19.10,0.40
15:48:44,52.76,20.00,0.37
15:48:46,52.84,19.10,0.37
15:48:48,53.09,26.10,0.34
15:48:50,53.06,31.60,0.34
15:48:53,53.45,17.40,0.31
15:48:55,53.58,22.80,0.31
15:48:57,53.55,22.80,0.29
15:49:00,53.63,19.10,0.29
15:49:02,53.85,31.90,0.29
15:49:04,53.88,26.10,0.34
15:49:06,54.03,36.40,0.34
15:49:09,54.32,22.80,0.32
15:49:11,54.44,31.90,0.32
15:49:13,54.55,15.80,0.29
15:49:16,54.55,26.10,0.29
15:49:18,54.80,26.10,0.27
15:49:20,54.79,19.10,0.27
15:49:22,54.98,20.00,0.25
15:49:25,55.08,23.90,0.25
15:49:27,55.35,14.30,0.25
15:49:29,55.50,14.30,0.31
15:49:31,55.53,22.80,0.31
15:49:34,55.72,33.40,0.36
15:49:36,56.00,30.50,0.36
15:49:38,55.92,26.10,0.33
15:49:41,55.98,23.90,0.33
15:49:43,56.20,18.20,0.39
15:49:45,56.48,17.40,0.39
15:49:47,56.48,13.70,0.36
15:49:50,56.56,30.00,0.36
15:49:52,56.63,23.90,0.33
15:49:54,56.84,26.10,0.33
15:49:57,57.00,27.30,0.33
15:49:59,57.15,28.60,0.38
15:50:01,57.36,18.20,0.38
15:50:03,57.44,18.20,0.35
15:50:06,50.95,34.80,0.35
15:50:08,51.01,26.10,0.40
15:50:10,51.09,27.30,0.40
15:50:13,51.52,22.80,0.69
15:50:15,51.54,37.50,0.69
15:50:17,51.67,33.40,0.64
15:50:19,51.88,21.80,0.64
15:50:22,51.99,19.10,0.64
15:50:24,52.13,29.20,0.58
15:50:26,52.26,34.80,0.58
15:50:29,52.34,25.00,0.54
15:50:31,52.51,32.00,0.54
15:50:33,52.58,18.20,0.49
15:50:35,52.93,26.10,0.49
15:50:38,52.91,28.60,0.45
15:50:40,52.94,19.10,0.45
15:50:42,53.05,23.90,0.74
15:50:44,53.26,26.10,0.74
15:50:47,53.36,59.10,0.74
15:50:49,53.61,31.90,0.68
15:50:51,53.68,19.10,0.68
15:50:54,53.83,25.00,0.62
15:50:56,53.88,21.10,0.62
15:50:58,54.04,22.80,0.57
